{
	"data": [{
			"id": 110250,
			"common_name": "Australian saltbush",
			"slug": "atriplex-semibaccata",
			"scientific_name": "Atriplex semibaccata",
			"year": 1810,
			"bibliography": "Prodr. Fl. Nov. Holland.: 406 (1810)",
			"author": "R.Br.",
			"status": "accepted",
			"rank": "species",
			"family_common_name": "Amaranth family",
			"genus_id": 804,
			"image_url": "https://d2seqvvyy3b8p2.cloudfront.net/a570592dbc7b80a2d92450fd5d9b8111.jpg",
			"synonyms": ["Atriplex denticulata", "Obione neurivalvis", "Obione stuckertii", "Atriplex neurivalvis", "Obione semibaccata", "Atriplex flagellaris", "Atriplex semibaccata var. gracilis", "Atriplex stuckertii", "Atriplex semibaccata var. melanocarpa", "Atriplex semibaccata var. biformis", "Atriplex semibaccata var. appendiculata"],
			"genus": "Atriplex",
			"family": "Amaranthaceae",
			"links": {
				"self": "/api/v1/species/atriplex-semibaccata",
				"plant": "/api/v1/plants/atriplex-semibaccata",
				"genus": "/api/v1/genus/atriplex"
			}
		}, {
			"id": 103729,
			"common_name": "Cultivated garlic",
			"slug": "allium-sativum",
			"scientific_name": "Allium sativum",
			"year": 1753,
			"bibliography": "Sp. pl. 1:296.  1753",
			"author": "L.",
			"status": "accepted",
			"rank": "species",
			"family_common_name": "",
			"genus_id": 251,
			"image_url": "https://bs.floristic.org/image/o/99373fe28fd9cb9b00c865185baa04fd27955222",
			"synonyms": ["Porrum ophioscorodon", "Allium sativum f. sagittatum", "Allium sativum f. vulgare", "Allium scorodoprasum var. multibulbillosum", "Allium pekinense", "Allium sativum subsp. asiae-mediae", "Allium longicuspis"],
			"genus": "Allium",
			"family": "Amaryllidaceae",
			"links": {
				"self": "/api/v1/species/allium-sativum",
				"plant": "/api/v1/plants/allium-sativum",
				"genus": "/api/v1/genus/allium"
			}
		}, {
			"id": 110891,
			"common_name": "Early yellowrocket",
			"slug": "barbarea-verna",
			"scientific_name": "Barbarea verna",
			"year": 1860,
			"bibliography": "Fl. Brandenburg 1(1):36.  1860",
			"author": "Asch. (Mill.)",
			"status": "accepted",
			"rank": "species",
			"family_common_name": "Mustard family",
			"genus_id": 882,
			"image_url": "https://bs.floristic.org/image/o/6b32309b9724d2cf33f30280c9f302f86338fa89",
			"synonyms": ["Campe verna", "Erysimum vernum", "Barbarea brevistyla", "Erysimum praecox", "Campe praecox", "Crucifera praecox", "Erysimum tenuifolium", "Barbarea australis", "Barbarea erysimoides", "Barbarea longisiliqua", "Barbarea patula", "Barbarea praecox"],
			"genus": "Barbarea",
			"family": "Brassicaceae",
			"links": {
				"self": "/api/v1/species/barbarea-verna",
				"plant": "/api/v1/plants/barbarea-verna",
				"genus": "/api/v1/genus/barbarea"
			}
		}, {
			"id": 117413,
			"common_name": "White arctic mountain heather",
			"slug": "cassiope-tetragona",
			"scientific_name": "Cassiope tetragona",
			"year": 1834,
			"bibliography": "Edinburgh New Philos. J. 17: 158 (1834)",
			"author": "(L.) D.Don",
			"status": "accepted",
			"rank": "species",
			"family_common_name": "Heath family",
			"genus_id": 1503,
			"image_url": "https://d2seqvvyy3b8p2.cloudfront.net/fa0fb860ba213fed548877edcf490dd1.jpg",
			"synonyms": ["Andromeda tetragona", "Cassiope tetragona var. tetragona"],
			"genus": "Cassiope",
			"family": "Ericaceae",
			"links": {
				"self": "/api/v1/species/cassiope-tetragona",
				"plant": "/api/v1/plants/cassiope-tetragona",
				"genus": "/api/v1/genus/cassiope"
			}
		}, {
			"id": 138793,
			"common_name": "Eastern teaberry",
			"slug": "gaultheria-procumbens",
			"scientific_name": "Gaultheria procumbens",
			"year": 1753,
			"bibliography": "Sp. Pl.: 895 (1753)",
			"author": "L.",
			"status": "accepted",
			"rank": "species",
			"family_common_name": "Heath family",
			"genus_id": 3123,
			"image_url": "https://bs.floristic.org/image/o/750319763bb175386784077b0e614caa52d825f3",
			"synonyms": ["Gautiera procumbens", "Brossaea procumbens", "Gaultheria procumbens f. accrescens", "Gaultheria procumbens f. elongata", "Gaultheria humilis", "Gaultheria procumbens f. suborbiculata"],
			"genus": "Gaultheria",
			"family": "Ericaceae",
			"links": {
				"self": "/api/v1/species/gaultheria-procumbens",
				"plant": "/api/v1/plants/gaultheria-procumbens",
				"genus": "/api/v1/genus/gaultheria"
			}
		}, {
			"id": 554667,
			"common_name": "Bigelow's sedge ",
			"slug": "carex-dacica",
			"scientific_name": "Carex dacica",
			"year": 1835,
			"bibliography": "Flora 18: 247 (1835)",
			"author": "Heuff.",
			"status": "accepted",
			"rank": "species",
			"family_common_name": "Sedge family",
			"genus_id": 1462,
			"image_url": "",
			"synonyms": ["Carex bigelowii f. glacialis", "Carex nigra subsp. dacica", "Vignea dacica", "Carex hyperborea", "Carex fyllae", "Carex rigida f. pudica", "Carex rigida f. infuscata", "Carex bigelowii f. anguillata", "Carex rigida f. glacialis", "Carex rigida f. anguillata", "Vignantha dacica", "Vignantha rigida", "Carex bigelowii subsp. dacica", "Carex vulgaris var. hyperborea", "Carex saxatilis f. pudica", "Carex anguillata", "Onkerma rigida", "Carex saxatilis f. infuscata", "Carex bigelowii subsp. hyperborea"],
			"genus": "Carex",
			"family": "Cyperaceae",
			"links": {
				"self": "/api/v1/species/carex-dacica",
				"plant": "/api/v1/plants/carex-dacica",
				"genus": "/api/v1/genus/carex"
			}
		}, {
			"id": 145674,
			"common_name": "Isopterygium moss",
			"slug": "isopterygium-tenerum",
			"scientific_name": "Isopterygium tenerum",
			"year": 1869,
			"bibliography": "J. Linn. Soc., Bot., 12: 499, 499, 1869",
			"author": "Mitten",
			"status": "accepted",
			"rank": "species",
			"family_common_name": "",
			"genus_id": 3499,
			"image_url": "",
			"synonyms": ["Plagiothecium micans var. groutii", "Plagiothecium micans var. latifolium", "Plagiothecium micans var. minus", "Isopterygium micans", "Isopterygium micans var. groutii", "Isopterygium micans var. minus", "Isopterygium micans var. latifolium"],
			"genus": "Isopterygium",
			"family": "",
			"links": {
				"self": "/api/v1/species/isopterygium-tenerum",
				"plant": "/api/v1/plants/isopterygium-tenerum",
				"genus": "/api/v1/genus/isopterygium"
			}
		}, {
			"id": 177007,
			"common_name": "Spiral ditchgrass",
			"slug": "ruppia-cirrhosa",
			"scientific_name": "Ruppia cirrhosa",
			"year": 1918,
			"bibliography": "Bull. Orto Bot. Regia Univ. Napoli 5: 58 (1918)",
			"author": "(Petagna) Grande",
			"status": "accepted",
			"rank": "species",
			"family_common_name": "Ditch-grass family",
			"genus_id": 5931,
			"image_url": "https://bs.floristic.org/image/o/03d96aee5fdc2be3957b0ba241652c8061e0d22c",
			"synonyms": ["Ruppia maritima var. occidentalis", "Ruppia spiralis", "Ruppia occidentalis", "Ruppia truncatifolia", "Buccaferrea cirrhosa", "Dzieduszyckia limnobis", "Ruppia cirrhosa var. truncatifolia", "Ruppia maritima subsp. spiralis", "Ruppia lacustris", "Ruppia maritima var. spiralis", "Ruppia cirrhosa subsp. occidentalis"],
			"genus": "Ruppia",
			"family": "Ruppiaceae",
			"links": {
				"self": "/api/v1/species/ruppia-cirrhosa",
				"plant": "/api/v1/plants/ruppia-cirrhosa",
				"genus": "/api/v1/genus/ruppia"
			}
		}, {
			"id": 168656,
			"common_name": "Weak bluegrass",
			"slug": "poa-infirma",
			"scientific_name": "Poa infirma",
			"year": 1816,
			"bibliography": "F.W.H.von Humboldt, A.J.A.Bonpland & C.S.Kunth, Nov. Gen. Sp. 1: 158 (1816)",
			"author": "Kunth",
			"status": "accepted",
			"rank": "species",
			"family_common_name": "Grass family",
			"genus_id": 1522,
			"image_url": "https://bs.floristic.org/image/o/7625fcd9659f949d3adef4b656c9e4477e66c0dd",
			"synonyms": ["Poa annua", "Poa subcaerulea", "Poa algida", "Poa annua var. raniglumis", "Poa ovalis", "Puccinellia thomsonii", "Atropis thomsonii", "Poa variegata", "Poa remotiflora", "Ochlopoa perinconspicua", "Ochlopoa infirma", "Megastachya infirma", "Eragrostis infirma", "Colpodium thomsonii", "Poa perinconspicua", "Poa exilis", "Poa theodorii", "Poa irrigata", "Poa puberula", "Poa meyenii", "Poa pratensis subsp. irrigata", "Poa pratensis subsp. subcaerulea", "Catabrosa pumila", "Ochlopoa raniglumis", "Poa aestivalis", "Poa bipollicaris", "Poa annua f. reptans", "Poa annua f. purpurea", "Poa hansiana", "Poa humilis", "Ochlopoa annua subsp. raniglumis", "Ochlopoa annua", "Poa annua subsp. notabilis", "Ochlopoa annua subsp. pilantha", "Poa annua var. pilantha", "Ochlopoa annua subsp. notabilis", "Poa annua var. rigidiuscula", "Festuca tenuiculmis", "Poa hohenackeri", "Poa annua var. eriolepis", "Poa annua var. reptans", "Poa annua var. aquatica", "Poa depressa", "Poa athroostachya", "Glyceria thomsonii"],
			"genus": "Poa",
			"family": "Poaceae",
			"links": {
				"self": "/api/v1/species/poa-infirma",
				"plant": "/api/v1/plants/poa-infirma",
				"genus": "/api/v1/genus/poa"
			}
		}, {
			"id": 112210,
			"common_name": "Hairy grama",
			"slug": "bouteloua-hirsuta",
			"scientific_name": "Bouteloua hirsuta",
			"year": 1805,
			"bibliography": "Varied. Ci. 2(4): 141 (1805)",
			"author": "Lag.",
			"status": "accepted",
			"rank": "species",
			"family_common_name": "Grass family",
			"genus_id": 1074,
			"image_url": "https://d2seqvvyy3b8p2.cloudfront.net/a8a449772431379a4c7ba7c86ebe4e5e.jpg",
			"synonyms": ["Chondrosum hirsutum", "Bouteloua glandulosa", "Bouteloua hirsuta var. glandulosa", "Bouteloua hirsuta f. vivipara", "Bouteloua foenea", "Erucaria longifolia", "Chondrosum hirtum", "Chondrosum drummondii", "Bouteloua aschenborniana", "Atheropogon hirtus", "Bouteloua palmeri", "Bouteloua bolanderi", "Atheropogon papillosus", "Chondrosum aschenbornianum", "Erucaria hirsuta", "Chondrosum foeneum", "Bouteloua hirta", "Chondrosum papillosum", "Erucaria glandulosa", "Bouteloua hirticulmis", "Chondrosum hirsutum var. glandulosum", "Chloris hispida", "Actinochloa hirsuta", "Bouteloua quiriegoensis"],
			"genus": "Bouteloua",
			"family": "Poaceae",
			"links": {
				"self": "/api/v1/species/bouteloua-hirsuta",
				"plant": "/api/v1/plants/bouteloua-hirsuta",
				"genus": "/api/v1/genus/bouteloua"
			}
		}, {
			"id": 167935,
			"common_name": "Woolly plantain",
			"slug": "plantago-patagonica",
			"scientific_name": "Plantago patagonica",
			"year": 1792,
			"bibliography": "Icon. Pl. Rar. 2: 9, t. 306 (1792)",
			"author": "Jacq.",
			"status": "accepted",
			"rank": "species",
			"family_common_name": "Plantain family",
			"genus_id": 5418,
			"image_url": "https://bs.floristic.org/image/o/da51758a9f456a31c39aced5119cea6d84b78f8a",
			"synonyms": ["Plantago patagonica var. spinulosa", "Plantago spinulosa", "Plantago wyomingensis", "Plantago purshii var. picta", "Plantago purshii", "Plantago purshii var. oblonga", "Plantago xerodea", "Plantago gnaphalioides", "Plantago ignota", "Plantago oblonga", "Plantago limarensis", "Plantago purshii var. breviscapa", "Plantago purshii var. spinulosa", "Plantago patagonica var. breviscapa", "Plantago patagonica var. gnaphalioides", "Plantago patagonica var. oblonga", "Plantago picta"],
			"genus": "Plantago",
			"family": "Plantaginaceae",
			"links": {
				"self": "/api/v1/species/plantago-patagonica",
				"plant": "/api/v1/plants/plantago-patagonica",
				"genus": "/api/v1/genus/plantago"
			}
		}, {
			"id": 1235255,
			"common_name": "",
			"slug": "alopecurus-magellanicus",
			"scientific_name": "Alopecurus magellanicus",
			"year": 1791,
			"bibliography": "Tabl. Encycl. 1: 168 (1791)",
			"author": "Lam.",
			"status": "accepted",
			"rank": "species",
			"family_common_name": "Grass family",
			"genus_id": 281,
			"image_url": "https://d2seqvvyy3b8p2.cloudfront.net/3604685858c3d4469c6ee727d62fa98c.jpg",
			"synonyms": ["Alopecurus alpinus", "Alopecurus alpinus var. occidentalis", "Alopecurus glaucus", "Alopecurus borealis", "Alopecurus occidentalis", "Alopecurus aequalis var. sonomensis", "Alopecurus roshevitzianus", "Alopecurus variegatus", "Alopecurus alpinus f. lachleri", "Alopecurus antarcticus var. bracteatus", "Alopecurus alpinus f. stejnegeri", "Alopecurus alpinus var. robustus", "Alopecurus alpinus var. robustior", "Alopecurus giesekeanus", "Alopecurus altaicus", "Alopecurus magellanicus var. bracteatus", "Alopecurus alpinus subsp. pseudobrachystachyus", "Alopecurus antarcticus", "Alopecurus ovatus", "Alopecurus bracteatus", "Alopecurus pseudobrachystachyus", "Alopecurus stejnegeri", "Alopecurus triceps", "Alopecurus borealis var. iremelensis", "Alopecurus borealis var. igoschinae", "Alopecurus borealis var. muticus", "Alopecurus alpinus var. muticus", "Alopecurus antarcticus var. typicus", "Alopecurus antarcticus var. lechleri", "Alopecurus antarcticus var. brevispiculatus", "Alopecurus antarcticus var. triceps", "Alopecurus antarcticus f. triceps", "Alopecurus behringianus", "Alopecurus alpinus var. aristatus", "Alopecurus tenuis", "Alopecurus lechleri", "Alopecurus magellanicus subsp. glaucus", "Alopecurus alpinus f. antarcticus", "Alopecurus alpinus subsp. stejnegeri", "Alopecurus alpinus subsp. glaucus"],
			"genus": "Alopecurus",
			"family": "Poaceae",
			"links": {
				"self": "/api/v1/species/alopecurus-magellanicus",
				"plant": "/api/v1/plants/alopecurus-magellanicus",
				"genus": "/api/v1/genus/alopecurus"
			}
		}, {
			"id": 109028,
			"common_name": "Canadian milkvetch",
			"slug": "astragalus-canadensis",
			"scientific_name": "Astragalus canadensis",
			"year": 1753,
			"bibliography": "Sp. Pl.: 757 (1753)",
			"author": "L.",
			"status": "accepted",
			"rank": "species",
			"family_common_name": "Pea family",
			"genus_id": 763,
			"image_url": "https://d2seqvvyy3b8p2.cloudfront.net/624490be32abb5399f06f4463facc1ce.jpg",
			"synonyms": ["Astragalus carolinianus", "Astragalus canadensis var. carolinianus", "Astragalus canadensis var. longilobus", "Astragalus halei", "Tragacantha canadensis", "Phaca canadensis", "Psoralea multijuga", "Lotodes multijugum", "Solenotus canadensis", "Tragacantha orthocarpa", "Astragalus virgaurea", "Astragalus orthocarpus", "Astragalus oreophilus"],
			"genus": "Astragalus",
			"family": "Fabaceae",
			"links": {
				"self": "/api/v1/species/astragalus-canadensis",
				"plant": "/api/v1/plants/astragalus-canadensis",
				"genus": "/api/v1/genus/astragalus"
			}
		}, {
			"id": 132953,
			"common_name": "Teal lovegrass",
			"slug": "eragrostis-hypnoides",
			"scientific_name": "Eragrostis hypnoides",
			"year": 1888,
			"bibliography": "Prelim. Cat.: 69 (1888)",
			"author": "(Lam.) Britton, Sterns & Poggenb.",
			"status": "accepted",
			"rank": "species",
			"family_common_name": "Grass family",
			"genus_id": 1815,
			"image_url": "https://d2seqvvyy3b8p2.cloudfront.net/02e02b910f357cf7413a01412e2d9602.jpg",
			"synonyms": ["Poa hypnoides", "Poa dioica", "Poa carinata", "Eragrostis reptans var. contracta", "Eragrostis reptans var. laxior", "Eragrostis reptans var. pygmaea", "Megastachya hypnoides", "Poa mnioides", "Megastachya gouinii", "Erosion hypnoides", "Neeragrostis hypnoides", "Poa reptans var. caespitosa"],
			"genus": "Eragrostis",
			"family": "Poaceae",
			"links": {
				"self": "/api/v1/species/eragrostis-hypnoides",
				"plant": "/api/v1/plants/eragrostis-hypnoides",
				"genus": "/api/v1/genus/eragrostis"
			}
		}, {
			"id": 159676,
			"common_name": "Tufted evening-primrose",
			"slug": "oenothera-cespitosa",
			"scientific_name": "Oenothera cespitosa",
			"year": 1813,
			"bibliography": "J.Fraser, Cat. Pl. Upper Louisiana: n.ยบ 53 (1813)",
			"author": "Nutt.",
			"status": "accepted",
			"rank": "species",
			"family_common_name": "Evening Primrose family",
			"genus_id": 1367,
			"image_url": "https://bs.floristic.org/image/o/4093664a4a797a8b9e6634816544cdba283ecc00",
			"synonyms": ["Oenothera cespitosa var. montana", "Oenothera montana", "Oenothera marginata var. purpurea", "Pachylophus nuttallii", "Oenothera cespitosa f. caulescens", "Oenothera cespitosa f. albiflora", "Pachylophus montanus", "Pachylophus cespitosa", "Pachylophus glaber", "Oenothera scapigera", "Pachylophis montanus", "Pachylophis caespitosus", "Oenothera caespitosa var. longiflora", "Oenothera caespitosa var. purpurea", "Oenothera caespitosa var. montana", "Oenothera cespitosa var. purpurea", "Oenothera cespitosa var. marginata", "Oenothera caespitosa subsp. purpurea", "Oenothera cespitosa subsp. montana", "Oenothera caespitosa subsp. caespitosa", "Oenothera caespitosa subsp. montana", "Oenothera cespitosa subsp. marginata", "Oenothera caespitosa var. marginata", "Oenothera caespitosa var. eximia", "Oenothera cespitosa subsp. eximia", "Oenothera caespitosa subsp. eximia", "Oenothera cespitosa subsp. purpurea", "Oenothera caespitosa subsp. marginata"],
			"genus": "Oenothera",
			"family": "Onagraceae",
			"links": {
				"self": "/api/v1/species/oenothera-cespitosa",
				"plant": "/api/v1/plants/oenothera-cespitosa",
				"genus": "/api/v1/genus/oenothera"
			}
		}, {
			"id": 150779,
			"common_name": "Big blue lilyturf",
			"slug": "liriope-muscari",
			"scientific_name": "Liriope muscari",
			"year": 1929,
			"bibliography": "Gentes Herbarum 2: 35 (1929)",
			"author": "(Decne.) L.H.Bailey",
			"status": "accepted",
			"rank": "species",
			"family_common_name": "",
			"genus_id": 4215,
			"image_url": "https://bs.floristic.org/image/o/399fc0b70b0f58831fac6e61186ae19be75d8192",
			"synonyms": ["Liriope exiliflora", "Liriope platyphylla", "Liriope muscari f. variegata", "Liriope muscari f. latifolia", "Liriope yingdeensis", "Ophiopogon muscari", "Liriope muscari f. exiliflora", "Liriope gigantea", "Liriope muscari var. exiliflora"],
			"genus": "Liriope",
			"family": "Asparagaceae",
			"links": {
				"self": "/api/v1/species/liriope-muscari",
				"plant": "/api/v1/plants/liriope-muscari",
				"genus": "/api/v1/genus/liriope"
			}
		}, {
			"id": 138788,
			"common_name": "Creeping snowberry",
			"slug": "gaultheria-hispidula",
			"scientific_name": "Gaultheria hispidula",
			"year": 1824,
			"bibliography": "Fl. Boston., ed. 2: 165 (1824)",
			"author": "(L.) Muhl. ex Bigelow",
			"status": "accepted",
			"rank": "species",
			"family_common_name": "Heath family",
			"genus_id": 3123,
			"image_url": "https://bs.floristic.org/image/o/0098dda541ace8df6991299fe4a2327e7e70f53d",
			"synonyms": ["Chiogenes hispidula", "Phalerocarpus hispidulus", "Glyciphylla hispidula", "Chiogenes serpyllifolia", "Arbutus filiformis", "Gaultheria serpyllifolia", "Arbutus thymifolia", "Phalerocarpus serpyllifolia", "Lasierpa hispidula", "Vaccinium hispidulum", "Oxycoccus hispidulus", "Schollera hispidula"],
			"genus": "Gaultheria",
			"family": "Ericaceae",
			"links": {
				"self": "/api/v1/species/gaultheria-hispidula",
				"plant": "/api/v1/plants/gaultheria-hispidula",
				"genus": "/api/v1/genus/gaultheria"
			}
		}, {
			"id": 157827,
			"common_name": "Mat muhly",
			"slug": "muhlenbergia-richardsonis",
			"scientific_name": "Muhlenbergia richardsonis",
			"year": 1905,
			"bibliography": "Bull. Torrey Bot. Club 32: 600 (1905)",
			"author": "(Trin.) Rydb.",
			"status": "accepted",
			"rank": "species",
			"family_common_name": "Grass family",
			"genus_id": 4726,
			"image_url": "https://d2seqvvyy3b8p2.cloudfront.net/925f7b3d6283a47d12f5f43b278c1164.jpg",
			"synonyms": ["Muhlenbergia squarrosa", "Muhlenbergia brevifolia var. richardsonis", "Vilfa depauperata", "Sporobolus richardsonis", "Sporobolus depauperatus", "Vilfa richardsonis", "Vilfa squarrosa"],
			"genus": "Muhlenbergia",
			"family": "Poaceae",
			"links": {
				"self": "/api/v1/species/muhlenbergia-richardsonis",
				"plant": "/api/v1/plants/muhlenbergia-richardsonis",
				"genus": "/api/v1/genus/muhlenbergia"
			}
		}, {
			"id": 165935,
			"common_name": "Moss phlox",
			"slug": "phlox-subulata",
			"scientific_name": "Phlox subulata",
			"year": 1753,
			"bibliography": "Sp. Pl.: 152 (1753)",
			"author": "L.",
			"status": "accepted",
			"rank": "species",
			"family_common_name": "Phlox family",
			"genus_id": 4625,
			"image_url": "https://bs.floristic.org/image/o/de426683f3f3f06cfb01abab529a82e4f92072cc",
			"synonyms": ["Phlox subulata var. setacea", "Phlox brittonii", "Phlox setacea", "Phlox subulata var. latifolia", "Phlox subulata f. albiflora", "Phlox subulata var. ciliata", "Phlox subulata subsp. setacea", "Armeria subulata"],
			"genus": "Phlox",
			"family": "Polemoniaceae",
			"links": {
				"self": "/api/v1/species/phlox-subulata",
				"plant": "/api/v1/plants/phlox-subulata",
				"genus": "/api/v1/genus/phlox"
			}
		},
		{
			"id": 186411,
			"common_name": "Common dandelion",
			"slug": "taraxacum-ceratophorum",
			"scientific_name": "Taraxacum ceratophorum",
			"year": 1838,
			"bibliography": "Prodr. 7(1): 146 (1838)",
			"author": "(Ledeb.) DC.",
			"status": "accepted",
			"rank": "species",
			"family_common_name": "Aster family",
			"genus_id": 6482,
			"image_url": "https://d2seqvvyy3b8p2.cloudfront.net/a9abb8d21cb14aa7dc2925e830648b7c.jpg",
			"synonyms": ["Taraxacum hyperboreum", "Taraxacum arctogenum", "Taraxacum longii", "Taraxacum ovinum", "Taraxacum umbrinum", "Taraxacum dumetorum", "Taraxacum carthamopsis", "Taraxacum malteanum", "Taraxacum pellianum", "Taraxacum lacerum", "Taraxacum integratum", "Taraxacum mackenziense", "Taraxacum pseudonorvegicum", "Taraxacum eriophorum", "Taraxacum eurylepium", "Taraxacum maurolepium", "Taraxacum trigonolobum", "Taraxacum ambigens var. flutius", "Taraxacum multesimum", "Taraxacum intergratiforme", "Leontodon ceratophorus", "Taraxacum angulatum", "Taraxacum ambigens var. fultius", "Taraxacum latisquameum", "Taraxacum koraginense", "Taraxacum hultenii", "Taraxacum coverum", "Taraxacum groenlandicum", "Taraxacum kljutschevskoanum", "Taraxacum evittatum", "Taraxacum koraginicola", "Taraxacum malaisei", "Taraxacum chamissonis", "Taraxacum platyceras", "Taraxacum ceratophorum subsp. lacerum", "Taraxacum umbriniforme", "Taraxacum microcerum", "Taraxacum sachalinense", "Taraxacum chamarense", "Taraxacum callorhinorum", "Taraxacum chirieanum", "Taraxacum pseudolasianthum", "Taraxacum shimushirense", "Taraxacum altaicum", "Taraxacum brevicorne", "Taraxacum lateritium var. callorhinorum", "Taraxacum multisulcatum", "Taraxacum yesoalpinum", "Taraxacum macilentum var. hyperboreum", "Leontodon dumetorum", "Taraxacum megalanthum", "Taraxacum alaid-litorale", "Taraxacum lateritium var. erdiljachicum", "Taraxacum grandifolium", "Taraxacum microcornum", "Taraxacum frigidum", "Taraxacum grandisquamatum", "Leontodon eriophorum", "Taraxacum lateritium var. amguemicum", "Taraxacum integratiforme", "Taraxacum livens", "Taraxacum frigicola", "Taraxacum mitratum", "Taraxacum yamamotoi", "Taraxacum officinale subsp. ceratophorum"],
			"genus": "Taraxacum",
			"family": "Asteraceae",
			"links": {
				"self": "/api/v1/species/taraxacum-ceratophorum",
				"plant": "/api/v1/plants/taraxacum-ceratophorum",
				"genus": "/api/v1/genus/taraxacum"
			}
		}
	],
	"links": {
		"self": "/api/v1/species?page=2&range%5Bmaximum_height_cm%5D=5%2C20",
		"first": "/api/v1/species?page=1&range%5Bmaximum_height_cm%5D=5%2C20",
		"prev": "/api/v1/species?page=1&range%5Bmaximum_height_cm%5D=5%2C20",
		"next": "/api/v1/species?page=3&range%5Bmaximum_height_cm%5D=5%2C20",
		"last": "/api/v1/species?page=9&range%5Bmaximum_height_cm%5D=5%2C20"
	},
	"meta": {
		"total": 161
	}
}